session-04/capture.vcd
$timescale 10ns $end
$scope module logic $end
$var wire 1 ! LED $end
$upscope $end
$enddefinitions $end
$dumpvars
x!
$end
#287
0!
#337
1!
#10240631
0!
#20480637
1!
#30720631
0!
#40960637
1!
#51200631
0!
#61440637
1!
#71680631
0!
#81920637
1!
#92160631
0!
#102400637
1!
#112640631
0!
#122880637
1!
#133120631
0!
#143360637
1!
#153600631
0!
#163840637
1!
#174080631
0!
#184320637
1!
#194560631
0!
#204800637
1!
#215040631
0!
#225280637
1!
#235520631
0!
#245760637
1!
#256000631
0!
#266240637
1!
#276480631
0!
#286720637
1!
#296960631
0!
#307200637
1!
#317440631
0!
#327680637
1!
#337920631
0!
#348160637
1!
#358400631
0!
#368640637
1!
#378880631
0!
#389120637
1!
#399360631
0!
#409600637
1!
#419840631
0!
#430080637
1!
#440320631
0!
#450560637
1!
#460800631
0!
#471040637
1!
#481280631
0!
#491520637
1!
#501760631
0!
#512000637
1!
#522240631
0!
#532480637
1!
#542720631
0!
#552960637
1!
#563200631
0!
#573440637
1!
#583680631
0!
#593920637
1!
#604160631
0!
#614400637
1!
