session-04/capture.vcd
$timescale 10ns $end
$scope module logic $end
$var wire 1 ! LED $end
$upscope $end
$enddefinitions $end
$dumpvars
x!
$end
#212
0!
#262
1!
#10240556
0!
#20480562
1!
#30720556
0!
#40960562
1!
#51200556
0!
#61440562
1!
#71680556
0!
#81920562
1!
#92160556
0!
#102400562
1!
#112640556
0!
#122880562
1!
#133120556
0!
#143360562
1!
#153600556
0!
#163840562
1!
#174080556
0!
#184320562
1!
#194560556
0!
#204800562
1!
#215040556
0!
#225280562
1!
#235520556
0!
#245760562
1!
#256000556
0!
#266240562
1!
#276480556
0!
#286720562
1!
#296960556
0!
#307200562
1!
#317440556
0!
#327680562
1!
#337920556
0!
#348160562
1!
#358400556
0!
#368640562
1!
#378880556
0!
#389120562
1!
#399360556
0!
#409600562
1!
#419840556
0!
#430080562
1!
#440320556
0!
#450560562
1!
#460800556
0!
#471040562
1!
#481280556
0!
#491520562
1!
#501760556
0!
#512000562
1!
#522240556
0!
#532480562
1!
#542720556
0!
#552960562
1!
#563200556
0!
#573440562
1!
#583680556
0!
#593920562
1!
#604160556
0!
#614400562
1!
#624640556
0!
#634880562
1!
#645120556
0!
#655360562
1!
#665600556
0!
#675840562
1!
#686080556
0!
#696320562
1!
#706560556
0!
#716800562
1!
#727040556
0!
#737280562
1!
#747520556
0!
#757760562
1!
#768000556
0!
