session-04/capture.vcd
$timescale 10ns $end
$scope module logic $end
$var wire 1 ! LED $end
$upscope $end
$enddefinitions $end
$dumpvars
x!
$end
#212
0!
#262
1!
#10240556
0!
#20480562
1!
#30720556
0!
#40960562
1!
#51200556
0!
#61440562
1!
#71680556
0!
#81920562
1!
#92160556
0!
#102400562
1!
#112640556
0!
#122880562
1!
#133120556
0!
#143360562
1!
#153600556
0!
#163840562
1!
#174080556
0!
#184320562
1!
